>alloc: 0
>write: 80 'abcdefghijklmnopqrtsuvwxyzabcdefghijklmnopqrtsuvwxyzabcdefghijklmnopqrtsuvwxyz12'
>write: 80 'abcdefghijklmnopqrtsuvwxyzabcdefghijklmnopqrtsuvwxyzabcdefghijklmnopqrtsuvwxyz12'
>dump
 Size: 160/0
  blk 080 from 000 'abcdefghijklmnopqrtsuvwxyzabcdefghijklmnopqrtsuvwxyzabcdefghijklmnopqrtsuvwxyz12'
                    ^--readp
  blk 080 from 000 'abcdefghijklmnopqrtsuvwxyzabcdefghijklmnopqrtsuvwxyzabcdefghijklmnopqrtsuvwxyz12'
                    ^--readp
  stg 0 ''
